{
  "name": "Siebjee-dkim",
  "version": "0.2.0",
  "author": "Siebren Zwerver",
  "summary": "Standalone DKIM configurator",
  "license": "Apache-2.0",
  "source": "https://bitbucket.org/ownbaws/dkim/src",
  "project_page": "https://bitbucket.org/ownbaws/dkim",
  "issues_url": "https://bitbucket.org/ownbaws/dkim/issues",
  "dependencies": [
    {
      "name": "puppetlabs/stdlib",
      "version_requirement": ">= 4.0.0"
    }
  ],
  "requirements": [
    {
      "name": "puppet",
      "version_requirement": ">= 4.4.0 < 5.0.0"
    }
  ]
}
